731532 650041
911481 40863
327660 227670
382996 238457
579688 532842
498699 843797
995068 396988
339565 56179
988405 297287
471296 138017
273820 820356
312374 153867
423145 693646
571697 419793
540054 545047
338071 589540
655032 614365
183365 80087
4794 235548
770349 833499
187366 854612
41421 562467
916512 337805
692378 334510
414116 729215
890620 895271
845263 554637
265609 851493
335873 542876
631335 2614
447510 887506
339148 702356
49834 14025
97467 175265
877183 828489
790388 452294
119705 680797
531138 129694
830408 261689
564845 41053
55591 390742
324316 844668
436456 224512
106033 380840
896396 168381
557642 954925
245214 721850
386046 486438
70061 695390
935830 690856
106823 153818
472420 446014
46887 323198
742968 648630
372761 739791
876011 122922
567422 751858
921576 917533
258568 2004
674111 628228
87180 123211
233257 264585
681242 242789
93330 866189
764592 27812
926758 487249
24173 893166
797347 894169
544907 383943
611455 245539
210413 805311
111626 967253
631079 1087
643303 319003
888396 976853
683080 65922
246705 609542
508761 61684
468020 502494
619931 34607
424615 360605
394946 247131
175511 619407
336338 305807
991986 536603
90423 627009
707409 404777
165468 583345
971605 320258
537087 944304
324868 279474
376081 602660
994366 144333
883128 626542
281966 657832
613110 973521
509528 377695
293433 962106
798968 285370
656523 85113
870646 560744
417425 449016
494905 155114
352123 207630
935655 277113
993622 203814
492946 334983
571651 16373
12998 149580
659199 878457
891482 827906
830972 987465
809090 262412
625910 44978
831860 466795
14643 886013
308694 434348
360547 150800
561859 127156
509063 574548
320870 971495
715986 451747
665393 349719
826660 248395
300221 330739
191477 943059
419108 266637
740020 872289
151369 259018
230200 50299
810848 291284
782419 865387
383047 966293
905947 602064
4201 272354
617676 432598
666836 61779
626716 927875
252614 78474
439436 5905
671004 740199
37184 702545
146193 168057
258199 756384
17626 996033
163279 233184
536855 86075
266957 814126
470205 355893
467066 543133
423209 279015
746382 242889
244838 969467
829930 566214
697358 749879
808786 782634
764303 211095
862320 757449
513915 191813
105565 253069
417398 759540
707997 181713
608269 638305
546179 76793
14229 672001
926124 648295
988853 168749
816602 451227
675429 894712
949727 431918
330223 367578
289616 819375
782657 211599
405320 88730
298204 227892
957225 360421
660234 172029
618801 378390
839418 110755
888274 346660
367648 606096
985079 678047
205565 975001
503575 149751
527380 750302
533371 607179
482751 351547
61200 873631
559618 129500
413883 177041
849243 906052
852675 364552
668764 839183
616447 386335
996897 651512
990153 561558
66415 737315
26521 640794
393417 991933
371492 776706
746354 14350
