697954 418770 509
373274 356 443
752635 791429 468
960457 869664 507
915970 166312 525
501186 357361 449
272067 270071 407
175774 27788 383
427846 586941 470
983166 821190 525
46153 989210 525
912557 497396 525
548553 611928 434
412330 706653 509
152775 810452 509
374451 572335 470
964159 304881 525
987138 577548 525
824490 212904 509
61064 343618 443
931100 50893 525
171123 334379 443
848401 524242 525
555662 589729 434
993594 983319 427
815073 907049 525
767481 101043 509
888628 455894 525
387790 317576 441
119742 194194 383
933398 198296 525
899614 298541 525
79546 119514 354
11277 639467 509
926808 360090 525
555039 601658 434
193631 218508 386
891243 179279 525
66869 112523 354
403283 476164 449
710660 502041 509
976132 580770 525
34433 323124 443
320624 574815 470
832947 283329 509
916269 268435 525
927015 139578 525
506036 241990 449
118544 662065 509
739340 522916 509
714091 68665 509
937516 280701 525
81639 721547 509
328670 28430 443
668880 53730 509
934639 85717 525
620217 965501 525
949142 43875 525
225451 639344 509
27382 666206 509
856802 370741 525
964701 321720 525
275601 749145 509
137287 515072 470
432301 814668 509
270953 585993 470
687880 809908 504
637980 260642 509
792904 403109 509
971243 148318 525
536806 661450 509
589790 524707 452
71710 289227 443
571650 688192 509
78019 583942 470
975242 182699 525
385888 987480 525
557411 209420 470
138806 88623 354
459100 795826 509
725614 943942 525
249850 486534 449
655119 897274 525
639947 463586 509
959914 864813 507
357320 409367 436
710527 457337 509
111465 689054 509
668084 958767 525
147046 533493 470
405466 117525 443
56347 556493 470
26032 428182 449
285258 164676 443
344615 19686 443
778343 213345 509
579167 455567 470
248140 377215 441
532908 340948 470
37761 29401 324
68701 579141 470
992629 971862 427
868374 311710 525
364918 491380 449
47075 739243 509
640547 104320 509
133065 523962 470
572714 266300 470
616936 273323 470
485334 328466 449
806527 580298 509
200582 718874 509
337020 182723 443
65388 295145 443
579728 210439 470
855204 51890 525
126477 707895 509
753412 465963 509
754069 435319 509
519466 957733 525
240870 24120 443
741762 337903 509
467197 975242 525
725945 217773 509
267638 956666 525
918655 724456 525
110955 62317 354
542652 941633 525
208701 209668 311
498599 8035 449
186316 330857 443
358792 562190 470
742664 464711 509
21298 859379 525
149106 312578 443
393550 906238 525
602803 524439 452
710904 227830 509
375911 878962 525
641408 740453 504
503961 957040 525
708238 828996 468
460934 168751 449
187999 748235 509
773684 625757 509
587029 163011 470
942501 219202 525
545932 436705 470
925412 138047 525
504370 657679 509
812427 877952 525
443464 565318 470
378132 919628 525
146851 734781 509
204225 871437 525
669432 718797 504
521994 767306 509
983872 346332 525
894339 36596 525
497211 522164 470
942278 43855 525
30314 542979 470
771416 10786 509
388660 573389 470
184590 858547 525
594243 37128 470
432434 366920 449
190546 548644 470
468213 922122 525
21613 32006 308
986637 130288 525
671131 389147 509
715592 915157 525
868912 247276 525
300479 405700 441
641222 181064 509
530386 349505 470
565966 382321 470
2078 437464 449
684369 329720 509
799475 794629 468
510963 615743 470
889439 485834 525
621356 671287 509
299717 304343 371
641552 89512 509
724635 606811 509
855968 478005 525
557212 152041 470
92088 980701 525
171346 970897 525
795714 702182 504
431264 167902 449
67682 905426 525
138460 300222 443
902965 789081 525
490926 567591 470
803577 304924 509
268702 332675 407
165223 643289 509
599237 669700 509
908858 447572 525
360185 786803 509
140877 312320 443
705817 466914 509
2993 170461 383
269158 931158 525
954202 558171 525
519973 78447 470
802490 817659 406
887290 463342 525
319096 862945 525
928812 959801 507
285407 401197 441
78550 601954 470
732986 207179 509
390228 572767 470
178985 786858 509
281845 215064 443
679750 355446 509
842818 78434 525
473069 73222 449
78887 876734 525
878187 171258 525
598684 747478 509
283297 736574 509
549450 442645 470
181526 966392 525
50193 609786 470
778175 669976 504
676149 790312 504
280886 551816 470
747433 392831 509
929658 742775 525
873079 26986 525
329636 462878 449
173795 10071 383
238419 315261 407
230929 686517 509
681805 145010 509
990565 112467 525
450441 166494 449
989479 886391 507
550158 555543 421
775373 116686 509
471956 779766 509
880933 641380 525
202053 904249 525
259774 631297 509
862139 202474 525
