231518 176430 443
693343 443184 509
582514 213493 470
656306 965881 525
666042 512397 509
777714 687271 504
102213 144368 375
636418 490435 509
277782 728256 509
250361 192604 443
275346 731427 509
49338 757930 509
247977 386508 441
470503 407879 449
829074 645573 504
778521 459082 509
18979 782260 509
203539 716852 509
269357 719908 509
5640 534179 470
810638 60046 509
157840 431293 449
764513 293366 509
952224 678761 525
752817 330051 509
666310 625459 509
438375 525649 470
700372 603507 509
307617 888447 525
675289 752302 504
725310 650774 504
94901 303927 443
850210 777990 525
338480 688000 509
140578 207747 383
940248 494204 525
121326 761693 509
475289 207631 449
114534 700712 509
222685 890230 525
268894 535676 470
49305 95898 351
873412 447926 525
320033 538184 470
57864 454965 449
868947 455275 525
595501 328459 470
727828 133025 509
408170 343473 441
441431 961834 525
407809 90850 443
234684 62224 443
883709 291943 525
46095 489635 449
974042 525144 525
536691 91132 470
925141 846381 476
549598 185066 470
122414 598779 470
413255 277878 449
541360 877861 525
196660 970631 525
249952 587147 470
178909 411161 449
824062 943220 525
909804 208283 525
629716 812590 504
815787 920269 525
591812 319117 470
707772 712982 411
76031 962401 525
274273 550597 470
424010 582916 470
702168 73167 509
50937 522254 470
375525 989905 525
388771 576070 470
708938 924848 525
1385 980291 525
260454 611028 470
310050 669045 509
654708 51766 509
226534 398438 443
381390 538213 470
195472 781848 509
924711 167974 525
904136 715092 525
173155 734936 509
89395 311989 443
196037 346385 443
34534 719938 509
853281 440244 525
461176 836134 509
26447 850527 525
290928 602853 470
316389 65568 443
294329 789821 509
773508 296261 509
865171 434348 525
419955 552726 470
688691 851734 525
783141 764782 468
899459 487754 525
803738 789159 468
377761 202269 443
386604 871450 525
640859 187920 509
849903 1889 525
445877 522529 470
879657 411142 525
886974 828570 525
463609 702705 509
46700 505951 449
810626 776123 468
78954 176687 383
548779 445196 470
40304 617057 470
956002 402956 525
322891 242647 407
279244 191920 443
785213 674499 504
449323 579658 470
161442 221259 386
917631 438048 525
669123 209967 509
488698 354106 449
234967 811646 509
35109 547865 470
683647 129567 509
830762 983220 525
344406 863018 525
505989 937574 525
39531 94214 351
458244 972884 525
685171 552195 509
57623 743257 509
267009 798833 509
489753 428887 444
615814 928324 525
908052 70344 525
715486 255431 509
629591 546920 509
117060 225650 386
13946 728805 509
699661 746821 504
122871 507054 449
859231 824274 525
706139 212185 509
366501 631648 509
450706 130495 449
180252 742098 509
523144 649116 509
562304 56090 470
982189 788813 525
940324 29468 525
399281 22567 443
622031 687710 509
612124 119887 470
699485 884422 525
285285 215222 443
87987 866559 525
218135 853838 525
716507 6128 509
709603 991783 525
633742 510201 509
127098 521601 470
352595 704211 509
877026 728698 525
303658 167934 443
20961 410593 449
317587 940373 525
219721 692917 509
905445 361293 525
442035 402182 449
411180 401070 449
804890 368009 509
205660 690478 509
534742 367328 470
227685 581023 470
298556 210106 443
497197 469050 426
505329 512184 470
487486 39946 449
980276 371723 525
823784 348710 509
215533 640721 509
136995 239851 443
428071 566224 470
944932 304624 525
47479 408321 443
171527 255346 443
177436 663238 509
473297 176226 449
480484 673107 509
620083 693541 509
832926 935275 525
751311 850152 525
27689 875782 525
339059 788023 509
280683 168685 443
161112 17250 383
407520 698237 509
90069 198551 383
63303 758644 509
326797 212742 443
139755 456943 449
790367 611381 509
751073 398392 509
801699 764344 468
646497 591296 509
721231 220250 509
748748 329946 509
159422 282071 443
128011 978348 525
877560 928707 476
385354 975698 525
606821 336851 470
321903 303811 384
577133 330918 470
305124 430266 449
615503 110812 470
148013 72821 375
968959 167334 525
221409 687054 509
446748 112289 449
30890 881751 525
852968 753141 525
815612 910058 525
170278 325315 443
102482 369955 443
452290 911647 525
848580 438976 525
75362 955301 525
643174 164215 509
12052 954005 525
222311 114535 386
942095 162529 525
564392 709389 509
209214 725895 509
630810 648033 416
780251 24434 509
15128 669863 509
656966 558899 509
382305 904151 525
521809 277663 470
612368 869797 525
609544 779842 509
685094 464810 509
560521 754988 509
983447 933665 507
