260900 861391
388470 426996
766687 881239
773616 979641
838329 869185
789406 828780
190722 963659
351028 581153
924728 955043
660703 796875
807045 891084
643415 683843
500861 672515
499944 794488
536636 985112
653067 966508
277936 814240
929211 958423
427312 680904
613312 926905
410346 895590
618583 819499
956105 972728
649868 914739
90061 259843
946869 985452
102775 103445
913635 970665
551824 554400
839890 951848
552466 938671
185089 566518
922861 931143
963183 967836
890637 973850
189505 702352
47119 809934
774364 827492
806787 872067
470662 571809
692727 759450
719364 829672
987343 987716
571458 759201
605247 741278
154810 444132
847121 990415
428804 942681
657344 894532
474721 709166
539637 919056
438823 698582
550322 970927
437770 724665
358699 782881
687782 839447
977161 999505
434544 632598
693157 951504
778878 961461
699907 927684
214229 237426
106423 629584
398667 683807
57408 194254
820245 873621
190116 672484
934275 975992
409161 427301
441490 633072
842 985037
738423 853946
950893 964695
211874 415576
785802 789618
902710 933290
859959 951912
615145 780549
940167 978902
269361 581711
699890 879211
758444 958033
703262 740324
500723 979655
691526 699963
421785 538646
868286 879043
365365 580072
788489 919811
948653 975447
619721 690736
587111 700944
681986 858696
722155 882761
964493 990617
652912 932484
796955 865624
885414 966447
134703 807560
135037 938374
681142 921393
467301 619867
710698 779829
888114 905011
613913 851441
423035 551204
294053 506647
574994 735072
82950 437010
166656 603475
977790 984335
167156 875642
912693 988094
394756 735675
947945 955514
183325 556695
93535 333813
342719 433238
419409 518511
914214 949069
514192 702109
757071 805749
390616 471015
938766 968136
947924 990762
519869 786384
410950 565044
351102 493941
86749 992015
248523 440604
145584 617928
144785 964568
467116 505544
725699 974583
843044 912354
443154 471519
939687 971732
22428 871811
290354 804409
8351 561112
239496 323188
199627 500577
103189 881623
787067 974510
194838 629593
591281 805155
660994 706772
4450 467409
355930 691256
524906 995311
53480 940180
495034 894265
898312 973358
978436 994047
461938 727248
810035 941196
239304 496972
686333 856987
50863 553172
969700 976721
330795 614291
732377 817914
256991 383945
234513 265389
202574 302558
410907 677552
626273 889239
693057 986001
805799 914802
746151 780340
203368 592941
979129 999424
539751 868300
223164 902367
65644 67715
80047 412529
198405 843844
652477 803048
704365 835455
220768 418944
792605 896383
559423 739844
936650 998843
940671 957121
488599 902371
87446 555762
845475 888867
418993 609399
32655 907366
267974 390260
433728 881616
642590 734617
6087 649611
726767 842410
126181 780095
449327 561077
388074 850939
600246 855987
387142 563888
962009 988901
490346 563155
934714 985141
198381 385169
18598 840114
558912 715653
457917 778540
950590 997993
94899 846270
899733 909764
265396 548443
