703423 226591 509
673207 345716 509
543399 946771 525
60055 900156 525
843192 363315 525
20672 807230 509
884003 237622 525
89672 598701 470
586484 545039 452
850346 584900 525
314468 658246 509
829629 636917 504
290241 911486 525
55481 422661 449
485415 636293 509
524497 950119 525
199892 891193 525
130114 685528 509
627239 830152 504
708544 697451 504
392374 63992 443
285063 343154 389
78768 658357 509
701813 27297 509
896459 93749 525
193619 536370 470
514264 234113 470
60450 703099 509
105798 513524 470
926312 852891 476
602257 392112 470
904154 268049 525
386065 992436 525
878030 801644 525
501728 377398 449
873789 273525 525
917140 43803 525
819649 166665 509
260927 527409 470
184979 903950 525
944118 8140 525
998115 679933 525
923931 225962 525
570317 469181 470
837162 881196 525
967185 352969 525
142002 445791 449
320296 701247 509
40686 921670 525
122548 969474 525
834291 764162 468
801525 615047 509
567829 750063 509
5628 818801 509
456009 887034 525
97158 874768 525
235949 339575 407
462676 928521 525
443061 464461 444
164939 434145 449
171292 224039 386
76923 319330 443
156482 447693 449
524720 143834 470
256426 585878 470
117477 932034 525
937015 262793 525
234216 685435 509
405601 11416 443
496071 297813 449
38346 352052 443
80887 195070 383
983648 376169 525
100230 752332 509
592972 501295 470
646090 613308 509
383763 514550 470
822165 789517 468
617113 166369 470
769841 680838 504
914708 224072 525
83274 381559 443
306988 354468 441
139067 856314 525
464447 617594 470
175679 480331 449
574496 212538 470
99729 517664 470
274595 72592 443
664031 877225 525
638523 530098 509
189416 487715 449
332 797562 509
394217 692551 509
327324 351636 441
285904 819046 509
432395 605167 470
853426 682792 525
265876 207377 443
41964 467037 449
882270 815828 525
522224 830079 509
546860 427182 470
627599 911201 525
945576 354994 525
803197 214206 509
955415 497582 525
964242 786550 525
517027 501379 470
77246 288620 443
892126 303822 525
25819 278355 443
4706 319971 443
118944 50767 354
279011 988499 525
801263 500010 509
71237 861393 525
618675 208641 470
713946 641695 504
900113 946394 507
808841 543553 509
940104 984672 458
602458 326927 470
462504 281499 449
427268 781684 509
585157 750222 509
130842 268215 443
936768 21885 525
718751 78508 509
607628 124664 470
61288 504007 449
289513 656467 509
602937 512329 452
540700 758949 509
788519 577203 509
961246 585613 525
675014 485740 509
925024 714343 525
535219 773872 509
463352 939463 525
110744 646926 509
200078 200867 342
290227 270182 407
45066 877318 525
857210 660601 525
192254 375210 443
110438 980232 525
699618 395535 509
741934 946493 525
566534 38986 470
38196 390060 443
584894 273748 470
303476 431163 449
476753 338310 449
567553 376081 470
651702 228651 509
657021 779848 504
367466 68689 443
733442 184240 509
28284 102943 351
820696 616566 509
77486 247830 443
541704 364825 470
559292 786747 509
449887 397712 449
698739 81799 509
563840 21249 470
535756 909284 525
345483 180810 443
365352 148715 443
180429 167008 347
113215 543239 470
7629 537693 470
481892 238257 449
626533 7575 509
326274 803752 509
320478 211988 443
731090 292574 509
521041 813287 509
986560 126783 525
679158 71735 509
271813 309245 389
946566 456804 525
155637 812299 509
856314 341399 525
610523 497353 470
9339 709600 509
730206 993402 525
621111 531094 452
177567 302444 443
833995 880894 525
486085 46995 449
667002 724271 504
475354 559886 470
141967 783968 509
816493 904962 525
608750 842590 525
708064 685950 504
503912 789798 509
667719 59379 509
267464 922401 525
238932 491697 449
850883 876661 432
746613 818996 468
819536 649482 504
396905 424007 449
452883 636087 509
680863 741953 504
409706 975284 525
420383 418026 343
304527 285459 389
607873 291445 470
293966 817089 509
118608 210588 383
891157 829947 525
451004 988971 525
170089 277546 443
672753 618708 509
847857 369319 525
140409 778019 509
235611 49940 443
887405 8922 525
227668 933679 525
541403 677834 509
311926 284100 389
493622 578771 470
978492 318149 525
214906 281947 443
748203 928129 525
90999 928293 525
91636 265166 443
443332 758362 509
331876 531984 470
656675 265222 509
